<svg xmlns="http://www.w3.org/2000/svg" width="22" height="14" viewBox="0 0 22 14">
    <g fill="#C2CBD8" fill-rule="nonzero">
        <path d="M11 0C6.148 0 1.965 2.786.044 6.806a.448.448 0 0 0 0 .388C1.965 11.214 6.148 14 11 14c4.852 0 9.035-2.786 10.956-6.806a.448.448 0 0 0 0-.388C20.035 2.786 15.852 0 11 0zm0 11.83c-2.74 0-4.959-2.163-4.959-4.829 0-2.668 2.221-4.829 4.959-4.829 2.74 0 4.959 2.163 4.959 4.83 0 2.665-2.221 4.828-4.959 4.828z"/>
        <circle cx="11" cy="7" r="3"/>
    </g>
</svg>
